/home/yoga/Documents/Kafka/kafka-examples/kafka-avro-v2-05/src/main/java/com/example/KafkaAvroProducerV2.java
/home/yoga/Documents/Kafka/kafka-examples/kafka-avro-v2-05/target/generated-sources/avro/com/example/Customer.java
/home/yoga/Documents/Kafka/kafka-examples/kafka-avro-v2-05/src/main/java/com/example/KafkaAvroConsumerV1.java
